Performing C SOURCE FILE Test CMAKE_HAVE_LIBC_PTHREAD failed with the following output:
Change Dir: /home/paro/Pobrane/paro2021-template/cmake-build-debug/CMakeFiles/CMakeTmp

Run Build Command(s):/usr/bin/gmake cmTC_ad4c0/fast && /usr/bin/gmake  -f CMakeFiles/cmTC_ad4c0.dir/build.make CMakeFiles/cmTC_ad4c0.dir/build
gmake[1]: Wejście do katalogu '/home/paro/Pobrane/paro2021-template/cmake-build-debug/CMakeFiles/CMakeTmp'
Building C object CMakeFiles/cmTC_ad4c0.dir/src.c.o
/usr/bin/cc -DCMAKE_HAVE_LIBC_PTHREAD   -o CMakeFiles/cmTC_ad4c0.dir/src.c.o -c /home/paro/Pobrane/paro2021-template/cmake-build-debug/CMakeFiles/CMakeTmp/src.c
Linking C executable cmTC_ad4c0
/snap/clion/151/bin/cmake/linux/bin/cmake -E cmake_link_script CMakeFiles/cmTC_ad4c0.dir/link.txt --verbose=1
/usr/bin/cc -rdynamic CMakeFiles/cmTC_ad4c0.dir/src.c.o -o cmTC_ad4c0 
/usr/bin/ld: CMakeFiles/cmTC_ad4c0.dir/src.c.o: in function `main':
src.c:(.text+0x46): undefined reference to `pthread_create'
/usr/bin/ld: src.c:(.text+0x52): undefined reference to `pthread_detach'
/usr/bin/ld: src.c:(.text+0x5e): undefined reference to `pthread_cancel'
/usr/bin/ld: src.c:(.text+0x6f): undefined reference to `pthread_join'
collect2: error: ld returned 1 exit status
gmake[1]: *** [CMakeFiles/cmTC_ad4c0.dir/build.make:106: cmTC_ad4c0] Błąd 1
gmake[1]: Opuszczenie katalogu '/home/paro/Pobrane/paro2021-template/cmake-build-debug/CMakeFiles/CMakeTmp'
gmake: *** [Makefile:140: cmTC_ad4c0/fast] Błąd 2


Source file was:
#include <pthread.h>

static void* test_func(void* data)
{
  return data;
}

int main(void)
{
  pthread_t thread;
  pthread_create(&thread, NULL, test_func, NULL);
  pthread_detach(thread);
  pthread_cancel(thread);
  pthread_join(thread, NULL);
  pthread_atfork(NULL, NULL, NULL);
  pthread_exit(NULL);

  return 0;
}

Determining if the function pthread_create exists in the pthreads failed with the following output:
Change Dir: /home/paro/Pobrane/paro2021-template/cmake-build-debug/CMakeFiles/CMakeTmp

Run Build Command(s):/usr/bin/gmake cmTC_efedb/fast && /usr/bin/gmake  -f CMakeFiles/cmTC_efedb.dir/build.make CMakeFiles/cmTC_efedb.dir/build
gmake[1]: Wejście do katalogu '/home/paro/Pobrane/paro2021-template/cmake-build-debug/CMakeFiles/CMakeTmp'
Building C object CMakeFiles/cmTC_efedb.dir/CheckFunctionExists.c.o
/usr/bin/cc   -DCHECK_FUNCTION_EXISTS=pthread_create -o CMakeFiles/cmTC_efedb.dir/CheckFunctionExists.c.o -c /snap/clion/151/bin/cmake/linux/share/cmake-3.19/Modules/CheckFunctionExists.c
Linking C executable cmTC_efedb
/snap/clion/151/bin/cmake/linux/bin/cmake -E cmake_link_script CMakeFiles/cmTC_efedb.dir/link.txt --verbose=1
/usr/bin/cc  -DCHECK_FUNCTION_EXISTS=pthread_create -rdynamic CMakeFiles/cmTC_efedb.dir/CheckFunctionExists.c.o -o cmTC_efedb  -lpthreads 
/usr/bin/ld: cannot find -lpthreads
collect2: error: ld returned 1 exit status
gmake[1]: *** [CMakeFiles/cmTC_efedb.dir/build.make:106: cmTC_efedb] Błąd 1
gmake[1]: Opuszczenie katalogu '/home/paro/Pobrane/paro2021-template/cmake-build-debug/CMakeFiles/CMakeTmp'
gmake: *** [Makefile:140: cmTC_efedb/fast] Błąd 2



